{
  "Resources": {
    "quadysterClusterE62CDC74": {
      "Type": "AWS::ECS::Cluster",
      "Properties": {
        "ClusterName": "quadysterCluster"
      },
      "Metadata": {
        "aws:cdk:path": "cdkworkshop/quadysterCluster/Resource"
      }
    },
    "ECSLogs942C6BB7": {
      "Type": "AWS::Logs::LogGroup",
      "Properties": {
        "LogGroupName": "ECS-quadysterService",
        "RetentionInDays": 1
      },
      "UpdateReplacePolicy": "Delete",
      "DeletionPolicy": "Delete",
      "Metadata": {
        "aws:cdk:path": "cdkworkshop/ECSLogs/Resource"
      }
    },
    "quadysterServiceTaskDefEDC0F5E4": {
      "Type": "AWS::ECS::TaskDefinition",
      "Properties": {
        "ContainerDefinitions": [
          {
            "Essential": true,
            "Image": {
              "Fn::Join": [
                "",
                [
                  "833834609835.dkr.ecr.us-east-1.",
                  {
                    "Ref": "AWS::URLSuffix"
                  },
                  "/aws-cdk/assets:c7862b47fa2da5ffb93da6857fd4ad50338ddcde880ac3a15a20a1394633c402"
                ]
              ]
            },
            "LogConfiguration": {
              "LogDriver": "awslogs",
              "Options": {
                "awslogs-group": {
                  "Ref": "ECSLogs942C6BB7"
                },
                "awslogs-stream-prefix": "ECS",
                "awslogs-region": "us-east-1"
              }
            },
            "Memory": 512,
            "Name": "quadysterContainer",
            "PortMappings": [
              {
                "ContainerPort": 8080,
                "Protocol": "tcp"
              }
            ]
          }
        ],
        "Cpu": "256",
        "ExecutionRoleArn": "arn:aws:iam::833834609835:role/johndb",
        "Family": "cdkworkshopquadysterServiceTaskDefFD14F85B",
        "Memory": "512",
        "NetworkMode": "awsvpc",
        "RequiresCompatibilities": [
          "FARGATE"
        ],
        "TaskRoleArn": "arn:aws:iam::833834609835:role/johndb"
      },
      "Metadata": {
        "aws:cdk:path": "cdkworkshop/quadysterServiceTaskDef/Resource"
      }
    },
    "quadysterService67A55292": {
      "Type": "AWS::ECS::Service",
      "Properties": {
        "Cluster": {
          "Ref": "quadysterClusterE62CDC74"
        },
        "DeploymentConfiguration": {
          "MaximumPercent": 200,
          "MinimumHealthyPercent": 100
        },
        "DesiredCount": 1,
        "EnableECSManagedTags": false,
        "HealthCheckGracePeriodSeconds": 60,
        "LaunchType": "FARGATE",
        "LoadBalancers": [
          {
            "ContainerName": "quadysterContainer",
            "ContainerPort": 8080,
            "TargetGroupArn": {
              "Ref": "quadysterServiceLBquadysterServiceListenerECSGroup0E0C50B2"
            }
          }
        ],
        "NetworkConfiguration": {
          "AwsvpcConfiguration": {
            "AssignPublicIp": "DISABLED",
            "SecurityGroups": [
              {
                "Fn::GetAtt": [
                  "quadysterServiceSecurityGroupD6F3A4A6",
                  "GroupId"
                ]
              }
            ],
            "Subnets": [
              "subnet-01940b691b40a1c46",
              "subnet-0e1f91f101f8f6c61"
            ]
          }
        },
        "ServiceName": "quadysterService",
        "TaskDefinition": {
          "Ref": "quadysterServiceTaskDefEDC0F5E4"
        }
      },
      "DependsOn": [
        "quadysterServiceLBquadysterServiceListenerECSRuleAC87A292"
      ],
      "Metadata": {
        "aws:cdk:path": "cdkworkshop/quadysterService/Service"
      }
    },
    "quadysterServiceSecurityGroupD6F3A4A6": {
      "Type": "AWS::EC2::SecurityGroup",
      "Properties": {
        "GroupDescription": "cdkworkshop/quadysterService/SecurityGroup",
        "SecurityGroupEgress": [
          {
            "CidrIp": "0.0.0.0/0",
            "Description": "Allow all outbound traffic by default",
            "IpProtocol": "-1"
          }
        ],
        "VpcId": "vpc-08564a412bc2c5758"
      },
      "Metadata": {
        "aws:cdk:path": "cdkworkshop/quadysterService/SecurityGroup/Resource"
      }
    },
    "quadysterServiceSecurityGroupfromcdkworkshopquadysterServiceLBSecurityGroup6FF12FEB8080F96DA661": {
      "Type": "AWS::EC2::SecurityGroupIngress",
      "Properties": {
        "IpProtocol": "tcp",
        "Description": "Load balancer to target",
        "FromPort": 8080,
        "GroupId": {
          "Fn::GetAtt": [
            "quadysterServiceSecurityGroupD6F3A4A6",
            "GroupId"
          ]
        },
        "SourceSecurityGroupId": {
          "Fn::GetAtt": [
            "quadysterServiceLBSecurityGroupE24E6E21",
            "GroupId"
          ]
        },
        "ToPort": 8080
      },
      "Metadata": {
        "aws:cdk:path": "cdkworkshop/quadysterService/SecurityGroup/from cdkworkshopquadysterServiceLBSecurityGroup6FF12FEB:8080"
      }
    },
    "quadysterServiceAutoScalingTargetA0F9EFDD": {
      "Type": "AWS::ApplicationAutoScaling::ScalableTarget",
      "Properties": {
        "MaxCapacity": 2,
        "MinCapacity": 1,
        "ResourceId": {
          "Fn::Join": [
            "",
            [
              "service/quadysterCluster/",
              {
                "Fn::GetAtt": [
                  "quadysterService67A55292",
                  "Name"
                ]
              }
            ]
          ]
        },
        "RoleARN": "arn:aws:iam::833834609835:role/johndb",
        "ScalableDimension": "ecs:service:DesiredCount",
        "ServiceNamespace": "ecs"
      },
      "Metadata": {
        "aws:cdk:path": "cdkworkshop/quadysterServiceAutoScalingTarget/Resource"
      }
    },
    "quadysterServiceAutoScalingPolicy": {
      "Type": "AWS::ApplicationAutoScaling::ScalingPolicy",
      "Properties": {
        "PolicyName": "quadysterServiceAutoScalingPolicy",
        "PolicyType": "TargetTrackingScaling",
        "ScalingTargetId": {
          "Ref": "quadysterServiceAutoScalingTargetA0F9EFDD"
        },
        "TargetTrackingScalingPolicyConfiguration": {
          "PredefinedMetricSpecification": {
            "PredefinedMetricType": "ECSServiceAverageCPUUtilization"
          },
          "ScaleInCooldown": 10,
          "ScaleOutCooldown": 20,
          "TargetValue": 50
        }
      },
      "Metadata": {
        "aws:cdk:path": "cdkworkshop/quadysterServiceAutoScalingPolicy"
      }
    },
    "ELBSecurityGroup": {
      "Type": "AWS::EC2::SecurityGroup",
      "Properties": {
        "GroupDescription": "This is ELB security group",
        "GroupName": "quadysterServiceELBInternalGroup",
        "VpcId": "vpc-08564a412bc2c5758"
      },
      "Metadata": {
        "aws:cdk:path": "cdkworkshop/ELBSecurityGroup"
      }
    },
    "quadysterServiceLBFE652EE8": {
      "Type": "AWS::ElasticLoadBalancingV2::LoadBalancer",
      "Properties": {
        "Scheme": "internet-facing",
        "SecurityGroups": [
          {
            "Fn::GetAtt": [
              "quadysterServiceLBSecurityGroupE24E6E21",
              "GroupId"
            ]
          }
        ],
        "Subnets": [
          "subnet-0ce5f7bddb6238a29",
          "subnet-0bbbab3e544e97c73"
        ],
        "Type": "application"
      },
      "Metadata": {
        "aws:cdk:path": "cdkworkshop/quadysterServiceLB/Resource"
      }
    },
    "quadysterServiceLBSecurityGroupE24E6E21": {
      "Type": "AWS::EC2::SecurityGroup",
      "Properties": {
        "GroupDescription": "Automatically created Security Group for ELB cdkworkshopquadysterServiceLB98281700",
        "SecurityGroupIngress": [
          {
            "CidrIp": "0.0.0.0/0",
            "Description": "Allow from anyone on port 443",
            "FromPort": 443,
            "IpProtocol": "tcp",
            "ToPort": 443
          }
        ],
        "VpcId": "vpc-08564a412bc2c5758"
      },
      "Metadata": {
        "aws:cdk:path": "cdkworkshop/quadysterServiceLB/SecurityGroup/Resource"
      }
    },
    "quadysterServiceLBSecurityGrouptocdkworkshopquadysterServiceSecurityGroup3DB7D3898080253BB8D9": {
      "Type": "AWS::EC2::SecurityGroupEgress",
      "Properties": {
        "GroupId": {
          "Fn::GetAtt": [
            "quadysterServiceLBSecurityGroupE24E6E21",
            "GroupId"
          ]
        },
        "IpProtocol": "tcp",
        "Description": "Load balancer to target",
        "DestinationSecurityGroupId": {
          "Fn::GetAtt": [
            "quadysterServiceSecurityGroupD6F3A4A6",
            "GroupId"
          ]
        },
        "FromPort": 8080,
        "ToPort": 8080
      },
      "Metadata": {
        "aws:cdk:path": "cdkworkshop/quadysterServiceLB/SecurityGroup/to cdkworkshopquadysterServiceSecurityGroup3DB7D389:8080"
      }
    },
    "quadysterServiceLBquadysterServiceListener66156328": {
      "Type": "AWS::ElasticLoadBalancingV2::Listener",
      "Properties": {
        "DefaultActions": [
          {
            "TargetGroupArn": {
              "Ref": "quadysterServiceTG67FCBD0F"
            },
            "Type": "forward"
          }
        ],
        "LoadBalancerArn": {
          "Ref": "quadysterServiceLBFE652EE8"
        },
        "Port": 443,
        "Protocol": "HTTPS",
        "Certificates": [
          {
            "CertificateArn": "arn:aws:acm:us-east-1:833834609835:certificate/f200be1b-0550-4ab8-9bce-7e027bb14700"
          }
        ]
      },
      "Metadata": {
        "aws:cdk:path": "cdkworkshop/quadysterServiceLB/quadysterServiceListener/Resource"
      }
    },
    "quadysterServiceLBquadysterServiceListenerECSGroup0E0C50B2": {
      "Type": "AWS::ElasticLoadBalancingV2::TargetGroup",
      "Properties": {
        "HealthCheckIntervalSeconds": 60,
        "HealthCheckPath": "/health",
        "HealthCheckTimeoutSeconds": 10,
        "Port": 8080,
        "Protocol": "HTTP",
        "TargetGroupAttributes": [
          {
            "Key": "deregistration_delay.timeout_seconds",
            "Value": "10"
          }
        ],
        "TargetType": "ip",
        "VpcId": "vpc-08564a412bc2c5758"
      },
      "Metadata": {
        "aws:cdk:path": "cdkworkshop/quadysterServiceLB/quadysterServiceListener/ECSGroup/Resource"
      }
    },
    "quadysterServiceLBquadysterServiceListenerECSRuleAC87A292": {
      "Type": "AWS::ElasticLoadBalancingV2::ListenerRule",
      "Properties": {
        "Actions": [
          {
            "TargetGroupArn": {
              "Ref": "quadysterServiceLBquadysterServiceListenerECSGroup0E0C50B2"
            },
            "Type": "forward"
          }
        ],
        "Conditions": [
          {
            "Field": "path-pattern",
            "Values": [
              "*"
            ]
          }
        ],
        "ListenerArn": {
          "Ref": "quadysterServiceLBquadysterServiceListener66156328"
        },
        "Priority": 2
      },
      "Metadata": {
        "aws:cdk:path": "cdkworkshop/quadysterServiceLB/quadysterServiceListener/ECSRule/Resource"
      }
    },
    "quadysterServiceTG67FCBD0F": {
      "Type": "AWS::ElasticLoadBalancingV2::TargetGroup",
      "Properties": {
        "Port": 8080,
        "Protocol": "HTTP",
        "VpcId": "vpc-08564a412bc2c5758"
      },
      "Metadata": {
        "aws:cdk:path": "cdkworkshop/quadysterServiceTG/Resource"
      }
    },
    "DNSRecordSet": {
      "Type": "AWS::Route53::RecordSet",
      "Properties": {
        "Name": "quadysterService.quadyster.cloud.",
        "Type": "A",
        "AliasTarget": {
          "DNSName": {
            "Fn::GetAtt": [
              "quadysterServiceLBFE652EE8",
              "DNSName"
            ]
          },
          "HostedZoneId": {
            "Fn::GetAtt": [
              "quadysterServiceLBFE652EE8",
              "CanonicalHostedZoneID"
            ]
          }
        },
        "Comment": "Record Set Entry for LoadBalancer",
        "HostedZoneId": "Z1GOYFAJLG01KR"
      },
      "Metadata": {
        "aws:cdk:path": "cdkworkshop/DNSRecordSet"
      }
    }
  },
  "Outputs": {
    "LoadBalancerDNS": {
      "Value": {
        "Fn::GetAtt": [
          "quadysterServiceLBFE652EE8",
          "DNSName"
        ]
      }
    },
    "DNS": {
      "Value": {
        "Fn::Join": [
          "",
          [
            "https://",
            {
              "Ref": "DNSRecordSet"
            }
          ]
        ]
      }
    }
  }
}